%YAML 1.1
%TAG !u! tag:unity3d.com,2011:
--- !u!1045 &1
EditorBuildSettings:
  m_ObjectHideFlags: 0
  serializedVersion: 2
  m_Scenes:
  - enabled: 1
    path: Assets/Scenes/Main_Menu.unity
    guid: 2e3961366d60b7e4190391e18932439d
  - enabled: 1
    path: Assets/Scenes/Levels/Level1-4.unity
    guid: 4a9da5e5e390b534fbae033858c19b73
  - enabled: 1
    path: Assets/Scenes/Levels/Level1-2.unity
    guid: a3c6960dc8708b0419c7a561d4cdb8e5
  - enabled: 1
    path: Assets/Scenes/Levels/Level1-3.unity
    guid: 976069c5171956448a5fa333de2f77ec
  - enabled: 1
    path: Assets/Scenes/Level Select.unity
    guid: dab9ea2a07011e04aa0875bfc1c3da8f
  - enabled: 1
    path: Assets/Scenes/Levels/Boss-1.unity
    guid: f2ff7791177a7824bbe5c19060e1ea87
  - enabled: 1
    path: Assets/Scenes/Victory_Screen.unity
    guid: d5ceb409119616a45ac6f987eec10559
  - enabled: 1
    path: Assets/Scenes/Levels/Level1-1.unity
    guid: ff4d24e0808ac07429d634633493c6d9
  - enabled: 1
    path: Assets/Scenes/Levels/Level1-5.unity
    guid: 4c55500989fc2474dbe0dd368cd011df
  - enabled: 1
    path: Assets/Scenes/Levels/Level1-6.unity
    guid: 07bee8748f55ecf49b8dff0df02b3cc3
  m_configObjects: {}
