%YAML 1.1
%TAG !u! tag:unity3d.com,2011:
--- !u!78 &1
TagManager:
  serializedVersion: 2
  tags:
  - Enemy
  - Platform
  - Item
  layers:
  - Default
  - TransparentFX
  - Ignore Raycast
  - 
  - Water
  - UI
  - 
  - 
  - Ground
  - Player
  - Platform
  - Stompbox
  - Bullets
  - 
  - 
  - 
  - 
  - 
  - 
  - 
  - 
  - 
  - 
  - 
  - 
  - 
  - 
  - 
  - 
  - 
  - 
  - 
  m_SortingLayers:
  - name: BG
    uniqueID: 3483273881
    locked: 0
  - name: World
    uniqueID: 2542385115
    locked: 0
  - name: Default
    uniqueID: 0
    locked: 0
  - name: Effects
    uniqueID: 3893664107
    locked: 0
  - name: Pickups
    uniqueID: 1297838539
    locked: 0
  - name: Enemies
    uniqueID: 3251775351
    locked: 0
  - name: Player
    uniqueID: 2989738365
    locked: 0
